<?xml version="1.0" encoding="utf-8"?>
<!-- Generator: Adobe Illustrator 22.0.1, SVG Export Plug-In . SVG Version: 6.00 Build 0)  -->
<svg version="1.1" id="Layer_1" xmlns="http://www.w3.org/2000/svg" xmlns:xlink="http://www.w3.org/1999/xlink" x="0px" y="0px"
	 viewBox="0 0 500 194" style="enable-background:new 0 0 500 194;" xml:space="preserve">
<style type="text/css">
	.st0{fill:#FFFFFF;}
	.st1{fill:#EF9D59;}
</style>
<g>
	<g>
		<path class="st0" d="M101.5,151.5c0-0.4,0.4-0.7,0.8-0.7h0.7c0.2,0,0.6,0.2,0.8,0.4l10.3,19.1h0.1l10.3-19.1
			c0.1-0.3,0.5-0.4,0.8-0.4h0.7c0.4,0,0.8,0.3,0.8,0.7l5,29.7c0.1,0.6-0.3,1-0.8,1h-5.2c-0.4,0-0.8-0.4-0.8-0.7l-2-13.7h-0.1
			l-7.4,14.3c-0.1,0.3-0.5,0.5-0.8,0.5h-0.8c-0.3,0-0.6-0.2-0.8-0.5l-7.5-14.3h-0.1l-1.9,13.7c0,0.4-0.4,0.7-0.8,0.7h-5.2
			c-0.5,0-0.9-0.4-0.8-1L101.5,151.5z"/>
		<path class="st0" d="M137.3,152.1c0-0.4,0.4-0.8,0.8-0.8h18.3c0.5,0,0.8,0.4,0.8,0.8v4.8c0,0.4-0.4,0.8-0.8,0.8h-12.3v5.5h10.1
			c0.4,0,0.8,0.4,0.8,0.8v4.8c0,0.5-0.4,0.8-0.8,0.8h-10.1v6h12.3c0.5,0,0.8,0.4,0.8,0.8v4.8c0,0.4-0.4,0.8-0.8,0.8h-18.3
			c-0.5,0-0.8-0.4-0.8-0.8V152.1z"/>
		<path class="st0" d="M163.3,152.1c0-0.4,0.4-0.8,0.8-0.8h10.8c8.5,0,15.5,6.9,15.5,15.4c0,8.6-7,15.5-15.5,15.5H164
			c-0.4,0-0.8-0.4-0.8-0.8V152.1z M174.4,175.7c5,0,8.6-3.9,8.6-9c0-5-3.6-8.9-8.6-8.9h-4.2v17.9H174.4z"/>
		<path class="st0" d="M195.8,152.1c0-0.4,0.4-0.8,0.8-0.8h5.3c0.4,0,0.8,0.4,0.8,0.8v29.3c0,0.4-0.4,0.8-0.8,0.8h-5.3
			c-0.4,0-0.8-0.4-0.8-0.8V152.1z"/>
		<path class="st0" d="M224.1,150.8c4.4,0,7.7,1.4,10.7,4.1c0.4,0.4,0.4,0.9,0,1.2l-3.4,3.6c-0.3,0.3-0.8,0.3-1.1,0
			c-1.6-1.5-3.8-2.3-6-2.3c-5,0-8.7,4.2-8.7,9.1c0,4.9,3.7,9,8.7,9c2.1,0,4.3-0.8,5.9-2.1c0.3-0.3,0.9-0.3,1.2,0l3.4,3.7
			c0.3,0.3,0.3,0.9,0,1.2c-3,2.9-6.8,4.3-10.7,4.3c-8.8,0-16-7-16-15.9C208.1,158,215.2,150.8,224.1,150.8z"/>
		<path class="st0" d="M236.1,181.1l13.8-29.8c0.1-0.3,0.4-0.5,0.8-0.5h0.4c0.3,0,0.6,0.2,0.8,0.5l13.8,29.8
			c0.3,0.6-0.1,1.1-0.8,1.1h-4.9c-0.8,0-1.1-0.3-1.5-1.1l-1.6-3.5h-12l-1.6,3.5c-0.2,0.5-0.7,1.1-1.6,1.1h-4.9
			C236.2,182.2,235.9,181.7,236.1,181.1z M254.3,171.6l-3.4-7.3h0l-3.3,7.3H254.3z"/>
		<path class="st0" d="M269.4,152.1c0-0.4,0.4-0.8,0.8-0.8h5.3c0.4,0,0.8,0.4,0.8,0.8v23.6h10.5c0.5,0,0.8,0.4,0.8,0.8v4.8
			c0,0.4-0.4,0.8-0.8,0.8h-16.6c-0.5,0-0.8-0.4-0.8-0.8V152.1z"/>
		<path class="st0" d="M300,178l2.1-3.7c0.4-0.6,1.2-0.5,1.5-0.3c0.2,0.1,3.4,2.4,6.3,2.4c1.8,0,3.1-1.1,3.1-2.7
			c0-1.9-1.5-3.3-4.6-4.5c-3.8-1.5-8.6-4.5-8.6-9.8c0-4.4,3.4-8.8,10.2-8.8c4.6,0,8.1,2.3,9.5,3.3c0.5,0.3,0.4,1.1,0.3,1.4l-2.3,3.4
			c-0.3,0.5-1.1,0.9-1.5,0.6c-0.4-0.2-3.6-2.7-6.3-2.7c-1.6,0-2.8,1.1-2.8,2.3c0,1.6,1.3,2.9,4.8,4.3c3.4,1.4,8.9,4.1,8.9,10.1
			c0,4.6-3.9,9.2-10.4,9.2c-5.7,0-8.9-2.4-10-3.4C299.8,178.8,299.7,178.7,300,178z"/>
		<path class="st0" d="M326,152.1c0-0.4,0.4-0.8,0.8-0.8h18.3c0.5,0,0.8,0.4,0.8,0.8v4.8c0,0.4-0.4,0.8-0.8,0.8h-12.3v5.5H343
			c0.4,0,0.8,0.4,0.8,0.8v4.8c0,0.5-0.4,0.8-0.8,0.8h-10.1v6h12.3c0.5,0,0.8,0.4,0.8,0.8v4.8c0,0.4-0.4,0.8-0.8,0.8h-18.3
			c-0.5,0-0.8-0.4-0.8-0.8V152.1z"/>
		<path class="st0" d="M352,152.1c0-0.4,0.4-0.8,0.8-0.8H366c5.3,0,9.6,4.3,9.6,9.6c0,4.1-2.7,7.3-6.5,8.9l6.1,11.2
			c0.3,0.6,0,1.3-0.8,1.3h-5.9c-0.4,0-0.6-0.2-0.7-0.4l-5.9-11.7h-3.1v11.3c0,0.4-0.4,0.8-0.8,0.8h-5.3c-0.5,0-0.8-0.4-0.8-0.8
			V152.1z M365.4,164.5c1.8,0,3.4-1.7,3.4-3.5c0-1.9-1.5-3.4-3.4-3.4h-6.5v6.9H365.4z"/>
		<path class="st0" d="M377.6,152.4c-0.3-0.6,0.1-1.1,0.8-1.1h5.9c0.4,0,0.7,0.3,0.8,0.5l7.3,16.1h0.3l7.3-16.1
			c0.1-0.2,0.4-0.5,0.8-0.5h5.9c0.7,0,1,0.6,0.8,1.1l-13.9,29.8c-0.1,0.3-0.4,0.5-0.8,0.5h-0.4c-0.4,0-0.6-0.2-0.8-0.5L377.6,152.4z
			"/>
		<path class="st0" d="M410.9,152.1c0-0.4,0.4-0.8,0.8-0.8h5.3c0.4,0,0.8,0.4,0.8,0.8v29.3c0,0.4-0.4,0.8-0.8,0.8h-5.3
			c-0.4,0-0.8-0.4-0.8-0.8V152.1z"/>
		<path class="st0" d="M439.2,150.8c4.4,0,7.7,1.4,10.7,4.1c0.4,0.4,0.4,0.9,0,1.2l-3.4,3.6c-0.3,0.3-0.8,0.3-1.1,0
			c-1.6-1.5-3.8-2.3-6-2.3c-5,0-8.7,4.2-8.7,9.1c0,4.9,3.7,9,8.7,9c2.1,0,4.3-0.8,5.9-2.1c0.3-0.3,0.9-0.3,1.2,0l3.4,3.7
			c0.3,0.3,0.3,0.9,0,1.2c-3,2.9-6.8,4.3-10.7,4.3c-8.8,0-16-7-16-15.9C423.2,158,430.3,150.8,439.2,150.8z"/>
		<path class="st0" d="M455.2,152.1c0-0.4,0.4-0.8,0.8-0.8h18.3c0.5,0,0.8,0.4,0.8,0.8v4.8c0,0.4-0.4,0.8-0.8,0.8h-12.3v5.5h10.1
			c0.4,0,0.8,0.4,0.8,0.8v4.8c0,0.5-0.4,0.8-0.8,0.8h-10.1v6h12.3c0.5,0,0.8,0.4,0.8,0.8v4.8c0,0.4-0.4,0.8-0.8,0.8h-18.3
			c-0.5,0-0.8-0.4-0.8-0.8V152.1z"/>
		<path class="st0" d="M479.4,178l2.1-3.7c0.4-0.6,1.2-0.5,1.5-0.3c0.2,0.1,3.4,2.4,6.3,2.4c1.8,0,3.1-1.1,3.1-2.7
			c0-1.9-1.5-3.3-4.6-4.5c-3.8-1.5-8.6-4.5-8.6-9.8c0-4.4,3.4-8.8,10.2-8.8c4.6,0,8.1,2.3,9.5,3.3c0.5,0.3,0.4,1.1,0.3,1.4l-2.3,3.4
			c-0.3,0.5-1.1,0.9-1.5,0.6c-0.4-0.2-3.6-2.7-6.3-2.7c-1.6,0-2.8,1.1-2.8,2.3c0,1.6,1.3,2.9,4.8,4.3c3.4,1.4,8.9,4.1,8.9,10.1
			c0,4.6-3.9,9.2-10.4,9.2c-5.7,0-8.9-2.4-10-3.4C479.2,178.8,479,178.7,479.4,178z"/>
	</g>
	<g>
		<g>
			<path class="st0" d="M167.6,96.5V36.7c0-5.5-4.4-9.9-9.9-9.9l0,0c-5.5,0-9.9,4.4-9.9,9.9v59.8c-6.1,3.4-10.2,10-10.2,17.5
				c0,11.1,9,20.1,20.1,20.1c11.1,0,20.1-9,20.1-20.1C177.8,106.5,173.7,100,167.6,96.5z"/>
			<path class="st1" d="M169.7,109.2c-1.6-2.4-4.4-3.7-7.3-3.5c-2.9,0.2-5.4,2-6.8,4.5c0,0,0,0,0,0c-1-1.8-2.8-3.2-4.9-3.5
				c-2.1-0.3-4.3,0.5-5.5,2.3c-0.6,0.9-0.9,1.9-0.9,2.9c0,1,0.4,2,1,2.8c1.3,1.9,3.4,3,5.4,4.2c2.1,1.3,4.4,3.2,4.5,5.9
				c0,0.1,0,0.3,0,0.3s0.1-0.2,0.1-0.3c0.6-1.2,1.7-2,2.9-2.5c1.6-0.6,3.4-0.7,5.1-1c1.5-0.2,3.1-0.6,4.4-1.4c1.1-0.7,2-1.8,2.6-2.9
				C171.6,114.5,171.3,111.5,169.7,109.2z"/>
			<path class="st1" d="M157.7,94c1.5,0,2.9,0.2,4.3,0.5V88v0V68.2c0-2.4-1.9-4.3-4.3-4.3c-2.4,0-4.3,1.9-4.3,4.3V88v0v6.4
				C154.8,94.2,156.3,94,157.7,94z"/>
		</g>
		<path class="st0" d="M15.2,106.3c0,0-5.5-5.7-5.5-17.3c0-17.7,15-32.9,33.4-32.9h35.9c2.1,0,3.6,1.5,3.6,3.6v7.8
			c0,1.3-1,2.7-2.1,3.2l-11,4c0,0,7.2,5.9,7.2,18.4c0,13.9-12.7,28.7-32.9,28.7H30.2c-4,0-6.3,2.1-6.3,5.1c0,3.6,3.2,5.1,6.1,5.1
			h22.8c17.9,0,32.7,10.8,32.7,27.7c0,18.2-12.7,33.1-42.8,33.1C13.3,193,3,179.1,3,167.1c0-11.4,9.5-17.1,11.6-18.2v-0.6
			C12.2,147.5,0,142.2,0,127.2S15.2,106.3,15.2,106.3z M42.8,170.7c9.5,0,13.7-3.8,13.7-8.9c0-4-3.4-8-13.7-8
			c-6.8,0-13.7,2.5-13.7,8C29.1,167.1,33.6,170.7,42.8,170.7z M43.9,100.6c5.9,0,10.1-4.2,10.1-9.9s-4.2-9.9-10.1-9.9
			c-5.7,0-10.1,4.2-10.1,9.9S38.2,100.6,43.9,100.6z"/>
		<path class="st0" d="M96.5,4.6c0-1.9,1.7-3.6,3.6-3.6H121c1.9,0,3.6,1.7,3.6,3.6v125.8c0,1.9-1.7,3.6-3.6,3.6h-20.9
			c-1.9,0-3.6-1.7-3.6-3.6V4.6z"/>
		<path class="st0" d="M189.9,125.7l6.7-13.1c0.6-1.1,2.5-2.3,4-1.5c0,0,8.9,4.9,17.1,4.9c1.9,0,3.6-1.1,3.6-3.4
			c0-1.9-1.1-4.6-10.8-8c-14.8-5.1-21.3-13.7-21.3-25.5c0-12.7,9.1-23,29.6-23c12,0,21.1,3.2,25.3,5.9c1.7,1.1,3,2.9,1.9,4.8
			l-7,12.9c-0.6,1.1-2.5,1.7-4,1.1c0,0-8.7-4.4-16.2-4.4c-2.5,0-4.2,0.6-4.2,2.7c0,1.9,2.1,3.8,8.6,6.1c15.4,5.3,26,11.4,26,26.6
			c0,13.3-10.6,24.1-32.1,24.1c-12.5,0-22-3.2-25.8-6.3C189.9,128.5,188.9,127.4,189.9,125.7z"/>
		<path class="st0" d="M263.8,125.7l6.7-13.1c0.6-1.1,2.5-2.3,4-1.5c0,0,8.9,4.9,17.1,4.9c1.9,0,3.6-1.1,3.6-3.4
			c0-1.9-1.1-4.6-10.8-8C269.5,99.5,263,90.9,263,79.1c0-12.7,9.1-23,29.6-23c12,0,21.1,3.2,25.3,5.9c1.7,1.1,3,2.9,1.9,4.8l-7,12.9
			c-0.6,1.1-2.5,1.7-4,1.1c0,0-8.7-4.4-16.2-4.4c-2.5,0-4.2,0.6-4.2,2.7c0,1.9,2.1,3.8,8.6,6.1c15.4,5.3,26,11.4,26,26.6
			c0,13.3-10.6,24.1-32.1,24.1c-12.5,0-22-3.2-25.8-6.3C263.8,128.5,262.8,127.4,263.8,125.7z"/>
		<path class="st0" d="M364.9,85.4c8.6,0,14.6,3,14.6,3c0-7.4-1.1-11.2-10.3-11.2c-5.1,0-14.1,1.3-19,2.9c-2.9,1-4.2-1.1-4.6-4
			l-1.7-12c-0.6-3.2,1.1-4.6,2.9-5.1c1.7-0.6,15-2.9,25.3-2.9c23.6,0,32.1,9.9,32.1,32.3v42c0,1.9-1.7,3.6-3.6,3.6h-8.4
			c-1.1,0-2.5-0.4-3.4-2.5l-2.7-5.1c-4.4,4-11,9.5-23,9.5c-15,0-26.2-10.1-26.2-25.1C336.9,96.2,347.6,85.4,364.9,85.4z
			 M369.8,117.3c4.6,0,8.4-3.8,8.4-8.4c-0.2-4.4-3.8-8-8.4-8c-4.6,0-8.2,3.6-8.2,8C361.6,113.5,365.2,117.3,369.8,117.3z"/>
		<path class="st0" d="M418.1,61.7c0-2.1,1.7-3.6,3.6-3.6h8.9c1.1,0,2.9,1,3.4,2.3l3,7.6c4.2-4.6,12.9-11.8,26.8-11.8
			c23.6,0,36.1,18.1,36.1,39.7v34.6c0,1.9-1.7,3.6-3.6,3.6h-20.3c-2.1,0-3.6-1.7-3.6-3.6V94.9c0-7.6-4.4-14.3-12.9-14.3
			c-7.6,0-14.4,5.5-14.4,13.3v36.5c0,1.7-0.8,3.6-3.4,3.6h-20c-1.9,0-3.6-1.7-3.6-3.6V61.7z"/>
	</g>
</g>
</svg>
